THESIS/ALU/ALU_tb.vcd
$date
	Sun Aug 25 10:22:21 2024
$end
$version
	Icarus Verilog
$end
$timescale
	1ns
$end
$scope module ALU_tb $end
$var wire 8 ! W_REG [7:0] $end
$var wire 8 " F_OUT [7:0] $end
$var wire 1 # C_OUT $end
$var reg 8 $ F_ADD [7:0] $end
$var reg 7 % OP_CODE [6:0] $end
$var reg 1 & clk $end
$scope module uut $end
$var wire 8 ' F_ADD [7:0] $end
$var wire 7 ( OP_CODE [6:0] $end
$var wire 1 & clk $end
$var reg 1 # C_OUT $end
$var reg 8 ) F_OUT [7:0] $end
$var reg 8 * W_REG [7:0] $end
$var reg 9 + c_out [8:0] $end
$var reg 4 , tmp1 [3:0] $end
$var reg 4 - tmp2 [3:0] $end
$var reg 1 . tmp_cout $end
$var reg 1 / tmp_msbF $end
$upscope $end
$upscope $end
$enddefinitions $end
$comment Show the parameter values. $end
$dumpall
$end
#0
$dumpvars
0/
0.
bx -
bx ,
bx +
b0 *
b0 )
b0 (
b0 '
0&
b0 %
b0 $
0#
b0 "
b0 !
$end
#10
1&
#20
0&
b1110 %
b1110 (
b11111111 $
b11111111 '
#30
b11111111 !
b11111111 *
b11111111 +
1&
#40
0&
b1111 %
b1111 (
#50
1#
b11111110 "
b11111110 )
b111111110 +
1&
#60
0&
b1010 %
b1010 (
b11110000 $
b11110000 '
#70
b0 "
b0 )
b11110000 !
b11110000 *
0#
1&
#80
0&
b1011 %
b1011 (
b10001111 $
b10001111 '
#90
b10000000 "
b10000000 )
1&
#100
0&
b11 %
b11 (
b11111111 $
b11111111 '
#110
b0 "
b0 )
1&
#120
0&
b10 %
b10 (
#130
b0 !
b0 *
1&
#140
0&
b10010 %
b10010 (
#150
1&
#160
0&
b10011 %
b10011 (
b0 $
b0 '
#170
b11111111 "
b11111111 )
1&
#180
0&
b110 %
b110 (
b1 $
b1 '
#190
b0 "
b0 )
1&
#200
0&
b111 %
b111 (
b11111111 $
b11111111 '
#210
b11111110 "
b11111110 )
1&
#220
0&
b10100 %
b10100 (
b0 $
b0 '
#230
b0 "
b0 )
b1 !
b1 *
1&
#240
0&
b10101 %
b10101 (
b10000000 $
b10000000 '
#250
b10000001 "
b10000001 )
1&
#260
0&
b1000 %
b1000 (
b11111111 $
b11111111 '
#270
b0 "
b0 )
b11111111 !
b11111111 *
1&
#280
0&
b1001 %
b1001 (
b10000000 $
b10000000 '
#290
b11111111 "
b11111111 )
1&
#300
0&
b10000 %
b10000 (
b10101010 $
b10101010 '
#310
b0 "
b0 )
b10101010 !
b10101010 *
1&
#320
0&
b10001 %
b10001 (
b1010101 $
b1010101 '
#330
b1010101 "
b1010101 )
1&
#340
0&
b1 %
b1 (
b10001111 $
b10001111 '
#350
b10101010 "
b10101010 )
1&
#360
0&
#370
1&
#380
0&
b0 %
b0 (
b11111111 $
b11111111 '
#390
b0 "
b0 )
1&
#400
0&
b100 %
b100 (
#410
1#
b10101011 !
b10101011 *
1&
#420
0&
b101 %
b101 (
b1010101 $
b1010101 '
#430
b1010110 "
b1010110 )
0#
1&
#440
0&
#450
1&
#460
0&
b11100 %
b11100 (
b1111111 $
b1111111 '
#470
b0 "
b0 )
b111 -
b1111 ,
b11110111 !
b11110111 *
1&
#480
0&
b11101 %
b11101 (
b101111 $
b101111 '
#490
b10 -
b11110010 "
b11110010 )
1&
#500
0&
b1100 %
b1100 (
b11111111 $
b11111111 '
#510
b0 "
b0 )
b1000 !
b1000 *
1&
#520
0&
b1101 %
b1101 (
b10010010 $
b10010010 '
#530
b10011010 "
b10011010 )
1&
#540
0&
b11010 %
b11010 (
b1 $
b1 '
#550
b10 !
b10 *
b0 "
b0 )
1&
#560
0&
b11011 %
b11011 (
b10000100 $
b10000100 '
#570
b1000 "
b1000 )
1#
1/
1&
#580
0&
b11000 %
b11000 (
b1 $
b1 '
#590
b0 !
b0 *
b0 "
b0 )
1#
1&
#600
0&
b11001 %
b11001 (
b11111111 $
b11111111 '
#610
b1111111 "
b1111111 )
1#
1&
#620
0&
b100000 %
b100000 (
#630
b11111110 "
b11111110 )
0#
1&
#640
0&
b100001 %
b100001 (
#650
b11111101 "
b11111101 )
1&
#660
0&
b100010 %
b100010 (
#670
b11111011 "
b11111011 )
1&
#680
0&
b100011 %
b100011 (
#690
b11110111 "
b11110111 )
1&
#700
0&
b100100 %
b100100 (
#710
b11101111 "
b11101111 )
1&
#720
0&
b100101 %
b100101 (
#730
b11011111 "
b11011111 )
1&
#740
0&
b100110 %
b100110 (
#750
b10111111 "
b10111111 )
1&
#760
0&
b100111 %
b100111 (
#770
b1111111 "
b1111111 )
1&
#780
0&
b101000 %
b101000 (
b0 $
b0 '
#790
b1 "
b1 )
1&
#800
0&
b101001 %
b101001 (
#810
b10 "
b10 )
1&
#820
0&
b101010 %
b101010 (
#830
b100 "
b100 )
1&
#840
0&
b101011 %
b101011 (
#850
b1000 "
b1000 )
1&
#860
0&
b101100 %
b101100 (
#870
b10000 "
b10000 )
1&
#880
0&
b101101 %
b101101 (
#890
b100000 "
b100000 )
1&
#900
0&
b101110 %
b101110 (
#910
b1000000 "
b1000000 )
1&
#920
0&
b110111 %
b110111 (
#930
b10000000 "
b10000000 )
1&
#940
0&
b110000 %
b110000 (
b11111111 $
b11111111 '
#950
b11111110 "
b11111110 )
1&
#960
0&
b110001 %
b110001 (
#970
b11111101 "
b11111101 )
1&
#980
0&
b110010 %
b110010 (
#990
b11111011 "
b11111011 )
1&
#1000
0&
b110011 %
b110011 (
#1010
b11110111 "
b11110111 )
1&
#1020
0&
b110100 %
b110100 (
#1030
b11101111 "
b11101111 )
1&
#1040
0&
b110101 %
b110101 (
#1050
b11011111 "
b11011111 )
1&
#1060
0&
b110110 %
b110110 (
#1070
b10111111 "
b10111111 )
1&
#1080
0&
b110111 %
b110111 (
#1090
b11111111 "
b11111111 )
1&
#1100
0&
b111000 %
b111000 (
b0 $
b0 '
#1110
b1 "
b1 )
1&
#1120
0&
b111001 %
b111001 (
b1 $
b1 '
#1130
b11 "
b11 )
1&
#1140
0&
b111010 %
b111010 (
b11 $
b11 '
#1150
b111 "
b111 )
1&
#1160
0&
b111011 %
b111011 (
b111 $
b111 '
#1170
b1111 "
b1111 )
1&
#1180
0&
b111100 %
b111100 (
b1111 $
b1111 '
#1190
b11111 "
b11111 )
1&
#1200
0&
b111101 %
b111101 (
b11111 $
b11111 '
#1210
b111111 "
b111111 )
1&
#1220
0&
b111110 %
b111110 (
b111111 $
b111111 '
#1230
b1111111 "
b1111111 )
1&
#1240
0&
b111111 %
b111111 (
b1111111 $
b1111111 '
#1250
b11111111 "
b11111111 )
1&
